\begin{landscape}
\thispagestyle{empty}
\begin{table}
\caption{}
\begin{tabular}{| c | c | c | c | c | c | c | c | c | c | c | c | c | c | c | c | c | c | c | c | c | c | c | c | c | c |}
\hline
& \textbf{A} & \textbf{B} & \textbf{C} & \textbf{D} & \textbf{E} & \textbf{F} & \textbf{G} & \textbf{H} & \textbf{I} & \textbf{K} & \textbf{L} & \textbf{M} & \textbf{N} & \textbf{O} & \textbf{P} & \textbf{Q} & \textbf{R} & \textbf{S} & \textbf{T} & \textbf{W} & \textbf{U} & \textbf{V} & \textbf{X} & \textbf{Y}  & \\ \hline 
A & \textbf{19} & 0 & 0 & 0 & 0 & 0 & 0 & 0 & 0 & 0 & 0 & 0 & 0 & 0 & 0 & 0 & 0 & 0 & 0 & 0 & 0 & 0 & 0 & 0 & 1\\ \hline 
B & 0 & \textbf{19} & 0 & 0 & 0 & 0 & 0 & 0 & 0 & 0 & 0 & 0 & 0 & 1 & 0 & 0 & 0 & 0 & 0 & 0 & 0 & 0 & 0 & 0 & 0\\ \hline 
C & 0 & 0 & \textbf{20} & 0 & 0 & 0 & 0 & 0 & 0 & 0 & 0 & 0 & 0 & 0 & 0 & 0 & 0 & 0 & 0 & 0 & 0 & 0 & 0 & 0 & 0\\ \hline 
D & 0 & 0 & 0 & \textbf{20} & 0 & 0 & 0 & 0 & 0 & 0 & 0 & 0 & 0 & 0 & 0 & 0 & 0 & 0 & 0 & 0 & 0 & 0 & 0 & 0 & 0\\ \hline 
E & 0 & 0 & 0 & 0 & \textbf{16} & 0 & 0 & 0 & 0 & 0 & 0 & 0 & 0 & 0 & 0 & 0 & 0 & 1 & 0 & 0 & 0 & 0 & 0 & 0 & 3\\ \hline 
F & 0 & 0 & 0 & 0 & 0 & \textbf{17} & 0 & 0 & 0 & 0 & 0 & 0 & 0 & 0 & 0 & 0 & 0 & 0 & 0 & 0 & 0 & 0 & 0 & 0 & 3\\ \hline 
G & 0 & 0 & 0 & 0 & 0 & 0 & \textbf{19} & 0 & 0 & 0 & 0 & 0 & 0 & 0 & 1 & 0 & 0 & 0 & 0 & 0 & 0 & 0 & 0 & 0 & 0\\ \hline 
H & 0 & 0 & 0 & 0 & 0 & 0 & 1 & \textbf{18} & 1 & 0 & 0 & 0 & 0 & 0 & 0 & 0 & 0 & 0 & 0 & 0 & 0 & 0 & 0 & 0 & 0\\ \hline 
I & 0 & 0 & 0 & 0 & 0 & 0 & 0 & 0 & \textbf{18} & 0 & 0 & 0 & 0 & 0 & 0 & 0 & 0 & 0 & 0 & 0 & 0 & 0 & 1 & 0 & 1\\ \hline 
K & 0 & 0 & 0 & 0 & 0 & 0 & 0 & 0 & 0 & \textbf{18} & 0 & 0 & 0 & 0 & 0 & 0 & 0 & 0 & 0 & 0 & 0 & 0 & 0 & 0 & 2\\ \hline 
L & 0 & 0 & 0 & 0 & 0 & 0 & 0 & 0 & 0 & 0 & \textbf{20} & 0 & 0 & 0 & 0 & 0 & 0 & 0 & 0 & 0 & 0 & 0 & 0 & 0 & 0\\ \hline 
M & 0 & 0 & 0 & 0 & 0 & 0 & 0 & 0 & 0 & 0 & 0 & \textbf{13} & 2 & 0 & 0 & 0 & 0 & 0 & 2 & 0 & 0 & 0 & 0 & 0 & 3\\ \hline 
N & 0 & 0 & 0 & 0 & 0 & 0 & 0 & 0 & 0 & 0 & 0 & 0 & \textbf{17} & 1 & 0 & 0 & 0 & 0 & 0 & 0 & 0 & 0 & 0 & 0 & 2\\ \hline 
O & 0 & 0 & 0 & 0 & 0 & 0 & 0 & 0 & 0 & 0 & 0 & 0 & 0 & \textbf{20} & 0 & 0 & 0 & 0 & 0 & 0 & 0 & 0 & 0 & 0 & 0\\ \hline 
P & 0 & 0 & 0 & 0 & 0 & 0 & 2 & 0 & 0 & 0 & 0 & 0 & 0 & 0 & \textbf{16} & 0 & 0 & 0 & 0 & 0 & 0 & 0 & 0 & 0 & 2\\ \hline 
Q & 0 & 0 & 0 & 0 & 0 & 0 & 0 & 0 & 0 & 0 & 0 & 0 & 0 & 0 & 0 & \textbf{20} & 0 & 0 & 0 & 0 & 0 & 0 & 0 & 0 & 0\\ \hline 
R & 0 & 0 & 0 & 0 & 0 & 0 & 0 & 0 & 0 & 0 & 0 & 0 & 0 & 0 & 0 & 0 & \textbf{17} & 0 & 0 & 0 & 0 & 0 & 0 & 0 & 3\\ \hline 
S & 0 & 0 & 0 & 0 & 0 & 0 & 0 & 0 & 0 & 0 & 0 & 0 & 0 & 0 & 0 & 0 & 0 & \textbf{20} & 0 & 0 & 0 & 0 & 0 & 0 & 0\\ \hline 
T & 0 & 0 & 0 & 0 & 0 & 0 & 0 & 0 & 0 & 0 & 0 & 0 & 0 & 0 & 0 & 0 & 0 & 0 & \textbf{18} & 0 & 0 & 0 & 0 & 0 & 2\\ \hline 
W & 0 & 0 & 0 & 0 & 0 & 0 & 0 & 0 & 0 & 0 & 0 & 0 & 0 & 0 & 0 & 0 & 0 & 0 & 0 & \textbf{19} & 0 & 0 & 0 & 0 & 1\\ \hline 
U & 0 & 0 & 0 & 0 & 0 & 0 & 0 & 0 & 0 & 0 & 0 & 0 & 0 & 0 & 0 & 0 & 0 & 0 & 0 & 0 & \textbf{18} & 0 & 0 & 0 & 2\\ \hline 
V & 0 & 0 & 0 & 0 & 0 & 0 & 0 & 0 & 0 & 0 & 0 & 0 & 0 & 0 & 0 & 0 & 0 & 0 & 0 & 1 & 1 & \textbf{15} & 0 & 0 & 3\\ \hline 
X & 0 & 0 & 0 & 0 & 0 & 0 & 0 & 0 & 0 & 0 & 0 & 0 & 0 & 0 & 0 & 0 & 0 & 0 & 0 & 0 & 0 & 1 & \textbf{17} & 0 & 2\\ \hline 
Y & 0 & 0 & 0 & 0 & 0 & 0 & 0 & 0 & 0 & 0 & 0 & 0 & 0 & 0 & 0 & 0 & 0 & 0 & 0 & 0 & 0 & 0 & 1 & \textbf{19} & 0\\ \hline 
\end{tabular}
\end{table}
\end{landscape}
Result: 433/480
Result percentage: 0.9020833333333333



\begin{landscape}
\thispagestyle{empty}
\begin{table}
\caption{}
\begin{tabular}{| c | c | c | c | c | c | c | c | c | c | c | c | c | c | c | c | c | c | c | c | c | c | c | c | c | c |}
\hline
& \textbf{A} & \textbf{B} & \textbf{C} & \textbf{D} & \textbf{E} & \textbf{F} & \textbf{G} & \textbf{H} & \textbf{I} & \textbf{K} & \textbf{L} & \textbf{M} & \textbf{N} & \textbf{O} & \textbf{P} & \textbf{Q} & \textbf{R} & \textbf{S} & \textbf{T} & \textbf{W} & \textbf{U} & \textbf{V} & \textbf{X} & \textbf{Y}  & \\ \hline 
A & \textbf{95} & 0 & 0 & 0 & 0 & 0 & 0 & 0 & 0 & 0 & 0 & 0 & 0 & 0 & 0 & 0 & 0 & 0 & 0 & 0 & 0 & 0 & 0 & 0 & 5\\ \hline 
B & 0 & \textbf{95} & 0 & 0 & 0 & 0 & 0 & 0 & 0 & 0 & 0 & 0 & 0 & 5 & 0 & 0 & 0 & 0 & 0 & 0 & 0 & 0 & 0 & 0 & 0\\ \hline 
C & 0 & 0 & \textbf{100} & 0 & 0 & 0 & 0 & 0 & 0 & 0 & 0 & 0 & 0 & 0 & 0 & 0 & 0 & 0 & 0 & 0 & 0 & 0 & 0 & 0 & 0\\ \hline 
D & 0 & 0 & 0 & \textbf{100} & 0 & 0 & 0 & 0 & 0 & 0 & 0 & 0 & 0 & 0 & 0 & 0 & 0 & 0 & 0 & 0 & 0 & 0 & 0 & 0 & 0\\ \hline 
E & 0 & 0 & 0 & 0 & \textbf{80} & 0 & 0 & 0 & 0 & 0 & 0 & 0 & 0 & 0 & 0 & 0 & 0 & 5 & 0 & 0 & 0 & 0 & 0 & 0 & 15\\ \hline 
F & 0 & 0 & 0 & 0 & 0 & \textbf{85} & 0 & 0 & 0 & 0 & 0 & 0 & 0 & 0 & 0 & 0 & 0 & 0 & 0 & 0 & 0 & 0 & 0 & 0 & 15\\ \hline 
G & 0 & 0 & 0 & 0 & 0 & 0 & \textbf{95} & 0 & 0 & 0 & 0 & 0 & 0 & 0 & 5 & 0 & 0 & 0 & 0 & 0 & 0 & 0 & 0 & 0 & 0\\ \hline 
H & 0 & 0 & 0 & 0 & 0 & 0 & 5 & \textbf{90} & 5 & 0 & 0 & 0 & 0 & 0 & 0 & 0 & 0 & 0 & 0 & 0 & 0 & 0 & 0 & 0 & 0\\ \hline 
I & 0 & 0 & 0 & 0 & 0 & 0 & 0 & 0 & \textbf{90} & 0 & 0 & 0 & 0 & 0 & 0 & 0 & 0 & 0 & 0 & 0 & 0 & 0 & 5 & 0 & 5\\ \hline 
K & 0 & 0 & 0 & 0 & 0 & 0 & 0 & 0 & 0 & \textbf{90} & 0 & 0 & 0 & 0 & 0 & 0 & 0 & 0 & 0 & 0 & 0 & 0 & 0 & 0 & 10\\ \hline 
L & 0 & 0 & 0 & 0 & 0 & 0 & 0 & 0 & 0 & 0 & \textbf{100} & 0 & 0 & 0 & 0 & 0 & 0 & 0 & 0 & 0 & 0 & 0 & 0 & 0 & 0\\ \hline 
M & 0 & 0 & 0 & 0 & 0 & 0 & 0 & 0 & 0 & 0 & 0 & \textbf{65} & 10 & 0 & 0 & 0 & 0 & 0 & 10 & 0 & 0 & 0 & 0 & 0 & 15\\ \hline 
N & 0 & 0 & 0 & 0 & 0 & 0 & 0 & 0 & 0 & 0 & 0 & 0 & \textbf{85} & 5 & 0 & 0 & 0 & 0 & 0 & 0 & 0 & 0 & 0 & 0 & 10\\ \hline 
O & 0 & 0 & 0 & 0 & 0 & 0 & 0 & 0 & 0 & 0 & 0 & 0 & 0 & \textbf{100} & 0 & 0 & 0 & 0 & 0 & 0 & 0 & 0 & 0 & 0 & 0\\ \hline 
P & 0 & 0 & 0 & 0 & 0 & 0 & 10 & 0 & 0 & 0 & 0 & 0 & 0 & 0 & \textbf{80} & 0 & 0 & 0 & 0 & 0 & 0 & 0 & 0 & 0 & 10\\ \hline 
Q & 0 & 0 & 0 & 0 & 0 & 0 & 0 & 0 & 0 & 0 & 0 & 0 & 0 & 0 & 0 & \textbf{100} & 0 & 0 & 0 & 0 & 0 & 0 & 0 & 0 & 0\\ \hline 
R & 0 & 0 & 0 & 0 & 0 & 0 & 0 & 0 & 0 & 0 & 0 & 0 & 0 & 0 & 0 & 0 & \textbf{85} & 0 & 0 & 0 & 0 & 0 & 0 & 0 & 15\\ \hline 
S & 0 & 0 & 0 & 0 & 0 & 0 & 0 & 0 & 0 & 0 & 0 & 0 & 0 & 0 & 0 & 0 & 0 & \textbf{100} & 0 & 0 & 0 & 0 & 0 & 0 & 0\\ \hline 
T & 0 & 0 & 0 & 0 & 0 & 0 & 0 & 0 & 0 & 0 & 0 & 0 & 0 & 0 & 0 & 0 & 0 & 0 & \textbf{90} & 0 & 0 & 0 & 0 & 0 & 10\\ \hline 
W & 0 & 0 & 0 & 0 & 0 & 0 & 0 & 0 & 0 & 0 & 0 & 0 & 0 & 0 & 0 & 0 & 0 & 0 & 0 & \textbf{95} & 0 & 0 & 0 & 0 & 5\\ \hline 
U & 0 & 0 & 0 & 0 & 0 & 0 & 0 & 0 & 0 & 0 & 0 & 0 & 0 & 0 & 0 & 0 & 0 & 0 & 0 & 0 & \textbf{90} & 0 & 0 & 0 & 10\\ \hline 
V & 0 & 0 & 0 & 0 & 0 & 0 & 0 & 0 & 0 & 0 & 0 & 0 & 0 & 0 & 0 & 0 & 0 & 0 & 0 & 5 & 5 & \textbf{75} & 0 & 0 & 15\\ \hline 
X & 0 & 0 & 0 & 0 & 0 & 0 & 0 & 0 & 0 & 0 & 0 & 0 & 0 & 0 & 0 & 0 & 0 & 0 & 0 & 0 & 0 & 5 & \textbf{85} & 0 & 10\\ \hline 
Y & 0 & 0 & 0 & 0 & 0 & 0 & 0 & 0 & 0 & 0 & 0 & 0 & 0 & 0 & 0 & 0 & 0 & 0 & 0 & 0 & 0 & 0 & 5 & \textbf{95} & 0\\ \hline 
\end{tabular}
\end{table}
\end{landscape}
