\begin{landscape}
\thispagestyle{empty}
\begin{table}
\begin{tabular}{| c | c | c | c | c | c | c | c | c | c | c | c | c | c | c | c | c | c | c | c | c | c | c | c | c | c |}
\hline
& \textbf{A} & \textbf{B} & \textbf{C} & \textbf{D} & \textbf{E} & \textbf{F} & \textbf{G} & \textbf{H} & \textbf{I} & \textbf{K} & \textbf{L} & \textbf{M} & \textbf{N} & \textbf{O} & \textbf{P} & \textbf{Q} & \textbf{R} & \textbf{S} & \textbf{T} & \textbf{W} & \textbf{U} & \textbf{V} & \textbf{X} & \textbf{Y} & None \\ \hline
A & \textbf{8} & 0 & 0 & 0 & 0 & 0 & 0 & 0 & 0 & 0 & 0 & 0 & 0 & 0 & 0 & 0 & 0 & 0 & 0 & 0 & 0 & 0 & 0 & 0 & 12\\ \hline
B & 0 & \textbf{5} & 0 & 2 & 0 & 0 & 0 & 0 & 0 & 0 & 0 & 0 & 0 & 0 & 0 & 0 & 0 & 0 & 0 & 0 & 0 & 1 & 0 & 0 & 12\\ \hline
C & 0 & 0 & \textbf{12} & 0 & 0 & 0 & 0 & 0 & 0 & 0 & 0 & 0 & 0 & 0 & 0 & 0 & 0 & 0 & 0 & 0 & 0 & 0 & 0 & 0 & 8\\ \hline
D & 0 & 0 & 0 & \textbf{5} & 0 & 0 & 0 & 0 & 0 & 0 & 0 & 0 & 0 & 0 & 0 & 0 & 2 & 0 & 0 & 0 & 0 & 0 & 0 & 0 & 13\\ \hline
E & 0 & 0 & 0 & 0 & \textbf{2} & 0 & 0 & 0 & 0 & 0 & 0 & 0 & 1 & 0 & 0 & 0 & 0 & 0 & 0 & 0 & 0 & 0 & 0 & 0 & 17\\ \hline
F & 0 & 0 & 0 & 0 & 0 & \textbf{14} & 0 & 0 & 0 & 0 & 0 & 0 & 0 & 0 & 0 & 0 & 0 & 0 & 0 & 0 & 0 & 0 & 0 & 0 & 6\\ \hline
G & 0 & 0 & 0 & 0 & 0 & 0 & \textbf{10} & 3 & 0 & 0 & 0 & 0 & 0 & 0 & 0 & 0 & 0 & 0 & 0 & 0 & 0 & 0 & 0 & 0 & 7\\ \hline
H & 0 & 0 & 0 & 0 & 0 & 0 & 0 & \textbf{12} & 0 & 0 & 0 & 0 & 0 & 0 & 1 & 0 & 0 & 0 & 0 & 0 & 0 & 0 & 0 & 0 & 7\\ \hline
I & 0 & 0 & 0 & 0 & 0 & 1 & 0 & 0 & \textbf{10} & 0 & 0 & 0 & 0 & 0 & 0 & 0 & 0 & 0 & 0 & 0 & 0 & 0 & 0 & 0 & 9\\ \hline
K & 0 & 0 & 0 & 0 & 0 & 0 & 0 & 0 & 0 & \textbf{5} & 0 & 0 & 0 & 0 & 0 & 0 & 0 & 0 & 0 & 0 & 0 & 0 & 0 & 0 & 15\\ \hline
L & 0 & 0 & 0 & 0 & 0 & 0 & 0 & 0 & 0 & 0 & \textbf{14} & 0 & 0 & 0 & 0 & 0 & 0 & 0 & 0 & 0 & 0 & 0 & 0 & 0 & 6\\ \hline
M & 0 & 0 & 0 & 0 & 2 & 0 & 0 & 0 & 0 & 0 & 0 & \textbf{2} & 1 & 0 & 0 & 0 & 0 & 0 & 0 & 0 & 0 & 0 & 0 & 0 & 15\\ \hline
N & 0 & 0 & 0 & 0 & 0 & 0 & 0 & 0 & 0 & 0 & 0 & 0 & \textbf{4} & 0 & 0 & 0 & 0 & 0 & 2 & 0 & 0 & 0 & 0 & 0 & 14\\ \hline
O & 0 & 0 & 0 & 0 & 0 & 1 & 0 & 0 & 0 & 0 & 0 & 0 & 0 & \textbf{9} & 0 & 0 & 0 & 0 & 0 & 0 & 0 & 0 & 0 & 0 & 10\\ \hline
P & 0 & 0 & 0 & 0 & 0 & 0 & 0 & 0 & 0 & 0 & 0 & 0 & 0 & 0 & \textbf{15} & 0 & 0 & 0 & 0 & 0 & 0 & 0 & 0 & 0 & 5\\ \hline
Q & 0 & 0 & 0 & 0 & 0 & 0 & 0 & 0 & 0 & 0 & 0 & 0 & 0 & 0 & 0 & \textbf{10} & 0 & 0 & 0 & 0 & 0 & 0 & 0 & 0 & 10\\ \hline
R & 0 & 0 & 0 & 0 & 0 & 1 & 0 & 0 & 0 & 0 & 0 & 0 & 0 & 0 & 0 & 0 & \textbf{5} & 0 & 0 & 0 & 3 & 0 & 0 & 0 & 11\\ \hline
S & 0 & 0 & 0 & 0 & 0 & 0 & 0 & 0 & 0 & 0 & 0 & 0 & 1 & 0 & 0 & 0 & 0 & \textbf{8} & 1 & 0 & 0 & 0 & 0 & 0 & 10\\ \hline
T & 0 & 0 & 0 & 0 & 0 & 0 & 0 & 0 & 0 & 0 & 0 & 0 & 0 & 0 & 0 & 0 & 0 & 0 & \textbf{4} & 0 & 0 & 0 & 0 & 0 & 16\\ \hline
W & 0 & 0 & 0 & 0 & 0 & 0 & 0 & 0 & 0 & 0 & 0 & 0 & 0 & 0 & 0 & 0 & 0 & 0 & 0 & \textbf{8} & 0 & 0 & 0 & 0 & 12\\ \hline
U & 0 & 0 & 0 & 0 & 0 & 0 & 0 & 0 & 0 & 0 & 0 & 0 & 0 & 0 & 0 & 0 & 0 & 0 & 0 & 0 & \textbf{4} & 0 & 0 & 0 & 16\\ \hline
V & 0 & 0 & 0 & 0 & 0 & 0 & 0 & 0 & 0 & 1 & 0 & 0 & 0 & 0 & 0 & 0 & 0 & 0 & 0 & 0 & 0 & \textbf{3} & 0 & 0 & 16\\ \hline
X & 0 & 0 & 0 & 0 & 0 & 0 & 0 & 0 & 0 & 0 & 0 & 0 & 0 & 0 & 0 & 0 & 0 & 0 & 0 & 0 & 0 & 0 & \textbf{9} & 0 & 11\\ \hline
Y & 0 & 0 & 0 & 0 & 0 & 0 & 0 & 0 & 0 & 0 & 1 & 0 & 0 & 0 & 0 & 0 & 0 & 0 & 0 & 0 & 0 & 0 & 0 & \textbf{9} & 10\\ \hline
\end{tabular}
\end{table}
\end{landscape}
Result: 187/480
Result percentage: 0.389583
Training time: 63

\begin{landscape}
\thispagestyle{empty}
\begin{table}
\begin{tabular}{| c | c | c | c | c | c | c | c | c | c | c | c | c | c | c | c | c | c | c | c | c | c | c | c | c | c |}
\hline
& \textbf{A} & \textbf{B} & \textbf{C} & \textbf{D} & \textbf{E} & \textbf{F} & \textbf{G} & \textbf{H} & \textbf{I} & \textbf{K} & \textbf{L} & \textbf{M} & \textbf{N} & \textbf{O} & \textbf{P} & \textbf{Q} & \textbf{R} & \textbf{S} & \textbf{T} & \textbf{W} & \textbf{U} & \textbf{V} & \textbf{X} & \textbf{Y} & \\ \hline
& [\%] & [\%] & [\%] & [\%] & [\%] & [\%] & [\%] & [\%] & [\%] & [\%] & [\%] & [\%] & [\%] & [\%] & [\%] & [\%] & [\%] & [\%] & [\%] & [\%] & [\%] & [\%] & [\%] & [\%] & [\%] & [\%] & [\%]
\\ \hline
A & \textbf{40} & 0 & 0 & 0 & 0 & 0 & 0 & 0 & 0 & 0 & 0 & 0 & 0 & 0 & 0 & 0 & 0 & 0 & 0 & 0 & 0 & 0 & 0 & 0 & 60\\ \hline
B & 0 & \textbf{25} & 0 & 10 & 0 & 0 & 0 & 0 & 0 & 0 & 0 & 0 & 0 & 0 & 0 & 0 & 0 & 0 & 0 & 0 & 0 & 5 & 0 & 0 & 60\\ \hline
C & 0 & 0 & \textbf{60} & 0 & 0 & 0 & 0 & 0 & 0 & 0 & 0 & 0 & 0 & 0 & 0 & 0 & 0 & 0 & 0 & 0 & 0 & 0 & 0 & 0 & 40\\ \hline
D & 0 & 0 & 0 & \textbf{25} & 0 & 0 & 0 & 0 & 0 & 0 & 0 & 0 & 0 & 0 & 0 & 0 & 10 & 0 & 0 & 0 & 0 & 0 & 0 & 0 & 65\\ \hline
E & 0 & 0 & 0 & 0 & \textbf{10} & 0 & 0 & 0 & 0 & 0 & 0 & 0 & 5 & 0 & 0 & 0 & 0 & 0 & 0 & 0 & 0 & 0 & 0 & 0 & 85\\ \hline
F & 0 & 0 & 0 & 0 & 0 & \textbf{70} & 0 & 0 & 0 & 0 & 0 & 0 & 0 & 0 & 0 & 0 & 0 & 0 & 0 & 0 & 0 & 0 & 0 & 0 & 30\\ \hline
G & 0 & 0 & 0 & 0 & 0 & 0 & \textbf{50} & 15 & 0 & 0 & 0 & 0 & 0 & 0 & 0 & 0 & 0 & 0 & 0 & 0 & 0 & 0 & 0 & 0 & 35\\ \hline
H & 0 & 0 & 0 & 0 & 0 & 0 & 0 & \textbf{60} & 0 & 0 & 0 & 0 & 0 & 0 & 5 & 0 & 0 & 0 & 0 & 0 & 0 & 0 & 0 & 0 & 35\\ \hline
I & 0 & 0 & 0 & 0 & 0 & 5 & 0 & 0 & \textbf{50} & 0 & 0 & 0 & 0 & 0 & 0 & 0 & 0 & 0 & 0 & 0 & 0 & 0 & 0 & 0 & 45\\ \hline
K & 0 & 0 & 0 & 0 & 0 & 0 & 0 & 0 & 0 & \textbf{25} & 0 & 0 & 0 & 0 & 0 & 0 & 0 & 0 & 0 & 0 & 0 & 0 & 0 & 0 & 75\\ \hline
L & 0 & 0 & 0 & 0 & 0 & 0 & 0 & 0 & 0 & 0 & \textbf{70} & 0 & 0 & 0 & 0 & 0 & 0 & 0 & 0 & 0 & 0 & 0 & 0 & 0 & 30\\ \hline
M & 0 & 0 & 0 & 0 & 10 & 0 & 0 & 0 & 0 & 0 & 0 & \textbf{10} & 5 & 0 & 0 & 0 & 0 & 0 & 0 & 0 & 0 & 0 & 0 & 0 & 75\\ \hline
N & 0 & 0 & 0 & 0 & 0 & 0 & 0 & 0 & 0 & 0 & 0 & 0 & \textbf{20} & 0 & 0 & 0 & 0 & 0 & 10 & 0 & 0 & 0 & 0 & 0 & 70\\ \hline
O & 0 & 0 & 0 & 0 & 0 & 5 & 0 & 0 & 0 & 0 & 0 & 0 & 0 & \textbf{45} & 0 & 0 & 0 & 0 & 0 & 0 & 0 & 0 & 0 & 0 & 50\\ \hline
P & 0 & 0 & 0 & 0 & 0 & 0 & 0 & 0 & 0 & 0 & 0 & 0 & 0 & 0 & \textbf{75} & 0 & 0 & 0 & 0 & 0 & 0 & 0 & 0 & 0 & 25\\ \hline
Q & 0 & 0 & 0 & 0 & 0 & 0 & 0 & 0 & 0 & 0 & 0 & 0 & 0 & 0 & 0 & \textbf{50} & 0 & 0 & 0 & 0 & 0 & 0 & 0 & 0 & 50\\ \hline
R & 0 & 0 & 0 & 0 & 0 & 5 & 0 & 0 & 0 & 0 & 0 & 0 & 0 & 0 & 0 & 0 & \textbf{25} & 0 & 0 & 0 & 15 & 0 & 0 & 0 & 55\\ \hline
S & 0 & 0 & 0 & 0 & 0 & 0 & 0 & 0 & 0 & 0 & 0 & 0 & 5 & 0 & 0 & 0 & 0 & \textbf{40} & 5 & 0 & 0 & 0 & 0 & 0 & 50\\ \hline
T & 0 & 0 & 0 & 0 & 0 & 0 & 0 & 0 & 0 & 0 & 0 & 0 & 0 & 0 & 0 & 0 & 0 & 0 & \textbf{20} & 0 & 0 & 0 & 0 & 0 & 80\\ \hline
W & 0 & 0 & 0 & 0 & 0 & 0 & 0 & 0 & 0 & 0 & 0 & 0 & 0 & 0 & 0 & 0 & 0 & 0 & 0 & \textbf{40} & 0 & 0 & 0 & 0 & 60\\ \hline
U & 0 & 0 & 0 & 0 & 0 & 0 & 0 & 0 & 0 & 0 & 0 & 0 & 0 & 0 & 0 & 0 & 0 & 0 & 0 & 0 & \textbf{20} & 0 & 0 & 0 & 80\\ \hline
V & 0 & 0 & 0 & 0 & 0 & 0 & 0 & 0 & 0 & 5 & 0 & 0 & 0 & 0 & 0 & 0 & 0 & 0 & 0 & 0 & 0 & \textbf{15} & 0 & 0 & 80\\ \hline
X & 0 & 0 & 0 & 0 & 0 & 0 & 0 & 0 & 0 & 0 & 0 & 0 & 0 & 0 & 0 & 0 & 0 & 0 & 0 & 0 & 0 & 0 & \textbf{45} & 0 & 55\\ \hline
Y & 0 & 0 & 0 & 0 & 0 & 0 & 0 & 0 & 0 & 0 & 5 & 0 & 0 & 0 & 0 & 0 & 0 & 0 & 0 & 0 & 0 & 0 & 0 & \textbf{45} & 50\\ \hline
\end{tabular}
\end{table}
\end{landscape}
